694610 199553 509
561707 992193 525
439555 580437 470
935122 872677 476
796841 730010 468
245155 583684 470
976988 234009 525
869666 273445 525
169565 148272 383
83180 563703 470
65104 156298 383
356846 9862 443
43608 263955 443
444931 591786 470
523285 167480 470
358673 748287 509
886487 936042 476
710711 97412 509
352543 565601 470
726803 822802 468
984861 117141 525
307308 247097 407
510329 820274 509
326938 452622 449
631298 164850 509
338649 834078 509
686139 518180 509
906740 518242 525
805692 40440 509
622335 170153 470
380253 324872 441
609824 457562 470
930802 640764 525
34932 374393 443
302572 15776 443
83035 474034 449
861375 12018 525
182740 180255 365
315747 379218 441
389100 107923 443
833215 868250 525
936962 568222 525
743801 580556 509
128445 80748 354
832907 52629 509
559224 727640 509
176879 834252 509
514352 6112 470
971142 807752 525
466191 322059 449
255877 113525 443
586802 13609 470
644738 709639 504
105258 130591 354
248841 821901 509
190231 669884 509
128159 276202 443
822534 144535 509
355645 591726 470
290935 149791 443
942896 8257 525
91727 17699 351
347894 240413 441
96375 690377 509
517746 612330 452
520502 929968 525
246289 437096 449
689977 214376 509
936013 805533 525
842627 255266 525
811938 185659 509
5778 576273 470
786992 504315 509
753654 476159 509
323165 746888 509
717442 718310 349
700721 288161 509
746498 680324 504
581583 314580 470
725562 334110 509
826930 920861 525
965432 513355 525
81704 353975 443
995087 128075 525
613022 74168 470
735094 613886 509
174143 909539 525
998971 869310 507
547289 902129 525
647511 999800 525
951695 2163 525
969248 258117 525
964582 944923 414
513104 879784 525
348747 712725 509
883817 301911 525
765853 80206 509
388066 874930 525
798569 501954 509
212473 169103 373
467906 962972 525
46628 61570 340
424431 857138 525
413183 338215 449
243854 723315 509
373574 345692 441
979592 60867 525
671589 365321 509
817012 817180 313
76476 63197 330
165976 625610 470
385934 331228 441
574695 824052 509
889726 555021 525
799528 892168 525
928873 664290 525
24515 934688 525
363945 792608 509
237154 202868 443
254589 591828 470
342158 513003 470
698171 529112 509
902363 866270 445
922637 207036 525
506541 139091 449
855696 119530 525
374937 882316 525
786839 82502 509
626787 389508 509
789030 577782 509
108063 609999 470
475538 697000 509
332415 644806 509
598406 425807 470
928981 711832 525
504001 325386 449
974417 665592 525
841394 377312 525
796322 402923 509
645345 771065 504
531026 437257 470
405705 280696 441
237756 711377 509
427660 285313 449
638319 387671 509
132170 857732 525
139418 818146 509
854977 668442 525
831581 286138 509
891884 308012 525
152304 150441 295
633847 648917 416
880038 577560 525
166952 524776 470
449964 115080 449
238528 562187 470
849605 288901 525
561769 855964 525
539803 460007 470
706699 872007 525
37346 547670 470
273879 419488 449
426044 842760 525
403450 500061 449
876989 567101 525
62716 869552 525
332377 359548 441
502261 922362 525
64206 245765 443
667579 364919 509
682290 366274 509
728663 81779 509
409572 21184 443
435025 357387 449
251353 949594 525
711404 772106 468
805221 522494 509
286461 661092 509
628617 233160 509
358078 469915 449
719216 598742 509
386072 227403 443
913291 602751 525
525685 960363 525
682933 678516 380
619917 511499 470
101775 533190 470
763260 843876 525
64487 905766 525
349568 8425 443
664314 507358 509
856497 749077 525
590399 457976 470
738971 634303 504
680851 625768 509
972543 218357 525
821588 697701 504
454847 398533 449
864807 982755 507
102864 891046 525
620001 469886 470
871812 183830 525
638038 833237 504
281732 227038 443
748321 210794 509
439406 212893 449
263035 231417 381
112716 23432 354
511280 313909 449
257673 255419 345
637424 835347 504
100932 785876 509
840230 377963 525
809282 426041 509
632929 918404 525
753376 331859 509
664912 825420 504
77164 837866 525
686790 454521 509
43001 320690 443
560621 419898 470
51412 228558 386
157857 468642 449
901206 627500 525
792176 774231 437
909824 521866 525
735977 242115 509
551504 740791 509
239491 354909 441
608824 783010 509
308092 501622 449
38788 895247 525
128888 340180 443
836417 602466 509
203428 924301 525
398654 293692 441
215434 814363 509
99736 448095 449
251985 500820 449
131102 154923 375
32677 326228 443
876920 259527 525
61324 782326 509
617120 65191 470
805863 201709 509
665535 539116 509
393007 515682 470
785692 107373 509
915950 102300 525
373760 485269 449
777884 95760 509
304762 551176 470
850753 975716 507
146893 98139 375
745133 464351 509
628732 867994 525
949119 189508 525
78259 732478 509
633077 593413 509
654772 241817 509
448124 261821 449
216375 625661 470
718157 53293 509
84602 287638 443
355287 439265 449
999440 796654 525
169107 329440 443
607360 822073 509
500884 74333 449
57984 421595 449
360867 61973 443
623545 931443 525
104905 644256 509
118126 329618 443
984568 919796 507
15510 956633 525
621860 796902 509
651602 857858 525
759167 416460 509
174765 716417 509
391935 937405 525
532485 65121 470
655684 981025 525
458481 509812 444
200668 664071 509
133148 388244 443
79522 425071 449
152513 605767 470
550491 689312 509
540467 447947 470
879143 96113 525
747213 654796 504
29121 792574 509
638610 615077 509
914884 544818 525
200183 692962 509
661930 193993 509
229967 831863 509
4626 706885 509
12761 200524 383
