946304 381005 525
992881 506037 525
499880 944955 525
506388 173836 449
740675 454010 509
728470 576625 509
979194 428444 525
604663 872153 525
779696 687965 504
935627 365174 525
742913 853753 525
428567 593048 470
700985 395864 509
699222 355069 509
918402 144263 525
571119 741586 509
801209 704294 504
764836 895901 525
8158 804996 509
280972 872519 525
607950 166775 470
757322 981106 525
222973 444113 449
268895 481661 449
616286 397361 470
295348 606019 470
520282 205241 470
120988 123265 336
555883 117172 470
792578 273703 509
123567 106929 349
714456 254432 509
347493 827600 509
262077 962062 525
926861 627065 525
696804 639237 442
449967 215791 449
372333 583933 470
302163 916480 525
764545 593936 509
925762 959118 507
849850 320931 525
308458 514442 470
824118 878817 525
85467 182971 383
657520 706830 504
113691 388236 443
758796 697097 504
347354 425528 449
213114 206403 373
391330 427228 449
517076 247767 470
861628 771806 525
182405 854833 525
260873 896969 525
963719 331206 525
58752 571291 470
945179 519565 525
709612 499944 509
955248 363470 525
788659 664205 504
478124 176315 449
602598 62300 470
811824 442690 509
552393 169283 470
554426 22024 470
919392 190215 525
145804 591042 470
685437 316777 509
989145 499825 525
59666 552965 470
96153 642568 509
203645 588669 470
470838 798114 509
880287 911783 476
878642 231323 525
710658 468477 509
865405 955109 507
542147 353801 470
758416 474401 509
460871 100905 449
100159 707186 509
118404 497042 449
947815 103866 525
430027 891684 525
918720 211632 525
446888 302441 449
871823 29306 525
583491 333006 470
64710 870619 525
451054 305858 449
774330 749219 468
722534 25551 509
655112 798744 504
313 123152 354
555537 693211 509
291017 371404 441
796886 192567 509
799952 999174 525
978140 179088 525
679092 84952 509
883443 596379 525
255288 765436 509
188368 591754 470
427968 378734 449
74734 295490 443
611331 101621 470
715519 81844 509
255186 754279 509
332072 226365 443
994673 108157 525
283557 584716 470
55018 207996 383
688692 433150 509
525048 780817 509
388232 165129 443
557070 425180 470
446855 801497 509
876651 33854 525
754498 733435 424
318844 202409 443
160296 72139 383
220216 520000 470
77458 143037 375
957891 170850 525
218706 994970 525
576059 304272 470
932530 823359 525
878355 233971 525
302931 156872 443
129756 676138 509
71321 384488 443
709655 378091 509
640260 125246 509
824931 234718 509
301831 585501 470
692850 711353 504
823402 75916 509
455644 629315 509
388511 755518 509
624888 12237 470
504559 166911 449
681891 660326 442
489158 604704 470
959805 917101 507
224328 103748 386
447094 104789 449
174247 80900 383
401749 78334 443
224556 694288 509
139505 51416 354
306733 611883 470
996655 686729 525
852174 470281 525
329292 800740 509
444714 520899 470
259275 436022 449
601878 724515 509
652655 188479 509
780032 470398 509
516654 278604 470
704530 126645 509
522089 380591 470
987569 904149 507
318402 286128 389
794886 233588 509
450205 56674 449
10796 435060 449
879012 21663 525
980100 339639 525
940235 484408 525
439520 701614 509
721774 181531 509
106744 318608 443
45781 324868 443
314099 43055 443
404944 248913 441
894660 172849 525
793154 65537 509
245039 818587 509
626187 197276 470
816546 433026 509
523006 762459 509
172374 768529 509
924167 134153 525
237246 325736 407
441505 764777 509
697427 256718 509
613253 13257 470
212239 347923 443
182833 466807 449
28778 995328 525
498499 294642 449
603542 892927 525
710979 149061 509
267845 182680 443
268431 298712 407
684675 371127 509
614729 891593 525
659755 443837 509
470795 100730 449
458008 174462 449
762392 271886 509
255633 26257 443
249876 927917 525
374090 488632 449
389116 846584 525
280435 955920 525
339702 637417 509
871203 592827 525
708054 818842 468
244337 236926 368
254707 968265 525
343173 419997 449
368936 192675 443
498541 322136 449
81458 756203 509
98344 282249 443
622140 589290 447
94216 30983 351
679771 574378 509
726402 474325 509
733964 925888 525
218057 910601 525
972070 449711 525
103581 338396 443
472487 489071 413
713916 441384 509
757264 388150 509
61874 518307 470
924560 341834 525
348027 178257 443
487526 375976 449
346646 304306 441
433393 663733 509
147157 668024 509
472346 866703 525
