590800 106885
653771 252920
235464 775226
739413 869184
713622 403736
470318 360780
703038 484172
781544 10036
296213 734745
416534 45413
376527 872049
227762 630432
728047 492658
235418 762515
792868 854013
263241 475934
917902 768311
84817 570115
405442 747316
669996 889428
786928 701982
46777 719941
352497 525137
572324 97427
630491 184499
237875 42743
539172 323509
186007 307834
840688 994094
523294 105929
405994 194084
136964 83569
423126 951715
964367 964726
438304 381424
248304 286809
155192 671304
467482 786319
184633 158685
348720 14499
277898 509494
80869 53939
230130 451220
88810 833993
65213 211383
249303 198324
542284 479417
518228 8970
81501 369902
680333 242544
642426 67337
145810 711245
91193 454938
875512 750731
889992 725643
149279 586249
101673 209549
867364 973794
633029 703606
327258 336644
274756 784773
172314 648593
147965 82421
514502 552939
266751 275976
364107 167334
173358 412179
13431 254916
984673 987727
686084 602777
60024 322628
461876 594706
690108 281141
748196 289519
183685 106061
392123 256185
35478 567630
911548 379721
251788 441848
387857 531697
979958 732621
119804 483605
713904 244416
361093 640520
989701 735867
291842 267001
776864 704357
989051 68034
378712 39157
625259 446699
824041 817193
409730 725924
511271 37140
625208 634236
57493 524023
961394 934930
310475 43842
499471 314005
255848 66693
819202 558686
257853 359661
995624 587299
816732 490252
918257 152750
798071 120767
824579 707626
97289 470125
11424 511241
550463 601034
821210 341139
695843 518023
732313 454310
808298 215775
885188 182347
738789 175200
39627 274598
19967 198898
429987 369132
516957 76499
236564 550761
554670 781096
99398 991279
214199 271074
406536 558664
307675 283308
494957 707763
553778 762390
309736 810280
609360 581017
436203 790887
624704 125604
563403 35063
688246 353276
650800 205746
336005 663464
650482 262291
574614 985791
168645 548063
984515 987839
776824 415479
214838 926095
897218 364969
998296 727315
539760 580544
175769 703887
920854 369643
544278 737431
959897 94334
501278 740023
53881 520898
616017 642819
421023 517471
727086 274519
294346 880841
825246 820471
45064 193037
868536 654916
837816 712864
884951 265894
221342 510904
169925 478453
550266 376501
189589 627313
5185 44616
750798 44552
437942 321512
52128 351445
629080 863889
932741 655393
459161 441723
786845 208655
174702 252949
765818 384195
618204 446563
215696 130739
532177 241129
750228 417282
888072 646718
498659 255686
944838 80141
674573 695294
34213 652348
723361 319712
132313 898819
233029 144168
309888 732786
993501 592538
527757 165983
956383 273571
425388 959536
347940 42653
635291 606496
642122 523359
98379 336140
797980 999716
1393 707213
78451 162550
580923 4790
136391 580833
448072 260828
827005 826720
407553 161390
275132 573768
832641 687509
435852 277177
47565 839370
753625 298371
20304 597595
981958 845549
967559 880451
711399 302463
969901 467963
316559 645162
586365 872844
855679 70572
191246 469914
383201 99213
31622 643843
1 1
1 999999
