375419 648969
72060 368899
980571 717183
461670 122201
530023 959239
710249 203859
181040 447604
823191 453899
587944 929480
314845 224587
106071 612484
600036 110475
578252 190403
679142 199906
241186 198873
382769 328337
426735 977155
532848 878172
254319 543576
302994 136922
94808 966007
717208 289670
935296 619882
805822 76487
277556 313285
874948 232192
370625 416152
557203 643599
717189 700504
147040 442100
300566 223760
993775 83684
435331 134459
560530 553986
474603 667952
788824 916508
780691 35962
302576 558876
925119 62099
580640 156230
730690 795559
484411 665663
441006 671250
118656 802
165998 935143
302854 341372
143605 486293
902775 730806
174926 477049
302801 220461
170813 763539
582769 789771
745308 125503
654745 495070
448608 839221
863598 186631
12494 557069
75772 849097
58577 284583
440757 330271
275784 402708
426088 966911
814083 433807
159995 616654
989159 310318
741144 393497
166563 594719
711679 111251
398367 122186
225701 814444
82087 124130
2843 92844
69609 523852
349831 227172
523457 644656
137219 467381
961656 18415
890859 678286
108463 582709
948489 906975
528000 76416
91853 706473
203181 972405
348198 386147
912471 534939
724096 323500
812000 85596
341492 616301
494285 854321
898160 393056
89850 769607
185832 17888
960738 145077
825673 959095
674980 544598
895945 767130
304604 510162
78633 682296
878434 689324
363660 994346
217960 235260
79219 760256
489379 894971
814271 974592
393535 286890
860957 28036
526021 989072
20342 936773
244472 529062
29566 633384
260370 122747
290120 782166
709396 763430
668473 40628
594055 126413
204290 876970
662778 616569
639030 958914
229413 152358
553816 195680
124116 341338
236891 214546
600001 411895
600548 737429
980652 93919
290388 846039
55022 396766
864666 23931
547789 816154
229496 231498
341744 854124
206258 551020
952890 943764
367369 933062
692486 536240
213765 802590
999361 694933
264808 955493
59013 597664
586614 981351
45234 434001
507185 843251
306439 588175
192940 167401
935364 466684
82096 486985
795313 929718
617306 192094
937877 546337
692508 34951
524913 192550
557273 828066
870103 783198
184701 381440
522655 659042
183184 228747
931041 716955
55816 694088
411668 392135
323277 271837
174941 905673
873496 198464
458511 763003
845139 281471
779819 192556
605105 486868
244590 748525
206825 70682
521406 443780
598388 942344
15267 770554
398680 43344
969584 303197
357989 990616
947880 155418
875415 213199
254895 517143
803540 125614
287993 870580
499821 291112
624754 613205
92849 725783
580629 58205
710407 373339
404586 896795
334891 740971
393200 231373
533429 292238
951526 733
630362 729750
357671 189284
231167 497962
521905 778255
990087 388370
150675 517980
583156 690548
336282 274217
683200 889265
305421 72617
358620 236356
160533 114454
963625 951968
206607 999398
200510 683577
65258 694962
614743 742659
952744 656572
399634 490111
275086 604985
989021 506481
268219 577480
550569 537752
422805 815627
532000 421623
417494 262278
694793 328847
489807 630771
179740 224313
112496 504658
291616 307589
921092 727654
606987 462779
568089 43646
24801 76716
733713 729676
921549 266025
361691 836139
547999 964815
738574 290097
479334 172708
908882 62212
247531 894172
831404 657507
73641 822230
714706 655726
86123 706254
803038 635657
691453 554043
749690 424181
553810 157535
413540 814144
407939 761240
