434985 646778 509
68708 660753 509
775170 840498 525
618768 582143 447
956429 589078 525
167066 652902 509
941035 846023 507
179199 780695 509
771654 586667 509
846113 217754 525
887951 583604 525
659589 178922 509
983133 277549 525
4913 787364 509
145307 818218 509
138515 663579 509
436528 833335 509
140694 357737 443
259333 945675 525
316783 629526 509
976114 961427 458
763443 61616 509
757905 636899 504
268341 107443 443
854134 437770 525
564125 920931 525
47668 279096 443
617697 639225 509
706027 224170 509
932533 728403 525
270014 65827 443
105365 693979 509
510375 676944 509
797548 954660 525
727738 313732 509
621150 478828 470
432949 463225 444
478393 723020 509
856273 39554 525
717040 461469 509
432183 188926 449
634289 718564 504
928279 813366 525
779371 633555 504
646580 456639 509
469866 92388 449
431827 747127 509
214836 386978 443
732853 538669 509
419645 910797 525
498251 297302 449
321932 403257 441
684374 271758 509
408862 872215 525
113678 844278 525
914865 114079 525
467455 261591 449
574646 57782 470
939653 483391 525
817137 308608 509
191803 512716 470
770863 444251 509
797248 915897 525
886282 885828 326
990471 368063 525
418816 246409 449
149086 820383 509
102660 408777 443
855344 820829 525
150600 187521 383
772241 970538 525
19678 452068 449
147120 433051 449
160891 443076 449
494088 300815 449
113874 506638 449
487504 248153 449
782158 287500 509
132615 107145 349
282530 379915 441
907684 674430 525
219101 164244 386
926071 276177 525
729710 854613 525
356710 430197 449
448818 345270 449
335043 755320 509
305462 967458 525
761029 505736 509
170994 728491 509
964683 310511 525
98767 409917 443
879908 384429 525
976774 457290 525
84411 218462 386
852808 364648 525
244273 335947 407
38104 71500 340
680776 922423 525
707521 333413 509
838085 119378 525
802223 587971 509
331483 18158 443
212681 656300 509
923864 936343 476
391397 611969 470
477471 109773 449
884524 765188 525
940998 162528 525
538331 689542 509
329238 539296 470
218632 27187 386
761416 251165 509
651144 669136 442
662735 396863 509
553745 656353 509
51885 142016 354
706078 304662 509
875457 622160 525
479361 484402 413
972581 404950 525
141529 655867 509
260100 555520 470
64325 283224 443
554715 517929 452
203349 502037 449
137817 283880 443
548778 988606 525
929932 105681 525
978809 511287 525
387622 234246 441
742016 21577 509
46182 424558 449
864924 247067 525
120224 527729 470
632705 616512 509
92475 522514 470
901152 926353 476
301917 89393 443
598168 996433 525
15672 983165 525
889724 62912 525
27200 869757 525
357199 291856 441
106248 606609 470
66213 699672 509
945028 117500 525
234090 928208 525
295863 912246 525
914580 348211 525
395046 515522 470
545735 94270 470
409996 692002 509
917580 936283 476
890007 94421 525
533522 458816 470
731783 31018 509
730798 464364 509
858729 148052 525
949432 23641 525
475876 820279 509
731434 456769 509
779465 52442 509
731962 122469 509
476692 251723 449
621643 695578 509
947339 85198 525
420096 83693 449
695574 960341 525
756781 9020 509
61691 823631 509
43026 689437 509
600583 504718 470
429835 613161 470
932522 186142 525
658439 370413 509
549797 334228 470
719294 698786 504
538421 110475 470
961976 408288 525
639404 641448 416
318983 454440 449
239096 816975 509
860464 488247 525
741860 922711 525
923750 682352 525
72801 247652 443
104305 294814 443
817454 368815 509
812095 344122 509
831765 786525 468
667309 125247 509
130183 720450 509
544262 682241 509
703847 359003 509
467613 626274 470
104061 390369 443
820440 604844 509
352946 996474 525
443303 718981 509
249132 993955 525
748155 559381 509
970073 246370 525
642187 497343 509
365804 455948 449
746597 560556 509
198738 656470 509
188889 961139 525
228436 292822 443
100985 726944 509
891817 908575 445
798398 985774 525
2255 356052 443
851908 124039 525
52960 185442 383
142841 426433 449
423293 988360 525
190154 141239 383
452145 693695 509
339661 522686 470
151626 333871 443
836930 944203 525
