811371 38893 509
45120 1377 324
120710 259313 443
455847 421584 418
472777 41626 449
211047 192552 373
75136 232923 443
714974 25630 509
663448 758841 504
128229 7897 354
597052 26582 470
190640 45550 383
116199 934425 525
297182 808482 509
308321 995674 525
922294 85079 525
209865 816074 509
935773 344925 525
928562 386126 525
723864 492016 509
257084 527743 470
634696 731304 504
838736 81805 525
151473 344032 443
993265 855003 507
317720 570923 470
834135 573585 509
506084 459603 444
914919 704860 525
193774 358566 443
728829 832271 468
695306 76287 509
703612 389497 509
244008 882940 525
325393 879695 525
851803 293506 525
55618 71631 335
630609 327713 509
914936 732777 525
710464 993187 525
501360 280004 449
673190 75808 509
502666 791511 509
787690 917143 525
221174 741416 509
598746 407620 470
891398 869527 445
803886 807006 375
785025 192996 509
663771 485292 509
864825 697845 525
206033 539866 470
517703 822438 509
632374 372018 509
974120 240351 525
810838 698106 504
660724 1862 509
892806 60383 525
365302 145009 443
708550 528265 509
933326 541934 525
381887 65435 443
947262 347165 525
361837 116526 443
94033 13803 351
828700 196604 509
441361 211575 449
323353 55908 443
879445 802437 525
825797 120416 509
961014 90864 525
982403 479293 525
721130 743365 424
149750 599749 470
782596 617827 509
113205 188053 383
639982 57379 509
72961 32111 340
805774 781280 468
96675 805490 509
685200 662550 442
681905 892148 525
360614 87373 443
572726 325689 470
916019 377541 525
65242 992292 525
798443 754209 468
961511 873484 507
805809 248508 509
881883 412651 525
329002 274529 389
22668 435489 449
543197 86700 470
854270 188062 525
189816 28966 383
989187 424357 525
962320 217435 525
217990 606531 470
553091 297969 470
945700 728500 525
322255 66978 443
641211 900832 525
683254 700013 442
82443 777181 509
104259 727126 509
710432 535213 509
529286 130124 470
114994 828537 509
937225 808910 525
240616 247755 368
783052 933141 525
153384 262296 443
353646 526262 470
186909 574520 470
914074 999747 507
560533 409016 470
274652 371342 441
792639 338085 509
61764 55339 335
637184 630181 416
484850 283362 449
125730 795667 509
72079 270342 443
623239 391841 470
563813 316235 470
695125 630983 442
145058 708856 509
429945 68759 449
544250 152245 470
893386 143249 525
687827 13509 509
741889 40869 509
615196 680603 509
443183 145575 449
905536 313431 525
104205 560300 470
907512 198950 525
984487 249100 525
931533 734023 525
166552 772332 509
864113 475652 525
299241 205116 443
952821 852603 507
413463 634887 509
673780 840164 525
543184 50320 470
930742 935548 414
694341 340571 509
574296 851412 525
723125 903587 525
246815 60590 443
471984 714312 509
667879 697792 442
173269 377176 443
603313 912358 525
324350 161868 443
472028 651647 509
528079 900091 525
836491 636274 504
436984 906552 525
476161 526787 470
225997 280858 443
226630 446801 449
885972 510493 525
605663 894715 525
810945 274063 509
674278 400916 509
751479 743348 393
859049 535769 525
909312 642063 525
248509 628817 509
151371 161261 383
381606 696099 509
390017 302972 441
529885 636501 509
968520 235828 525
260035 886742 525
414055 632519 509
194482 887784 525
460559 768432 509
495045 572262 470
602488 512316 452
903688 594947 525
832113 356365 509
85328 744312 509
996729 505188 525
830694 509181 509
824243 651254 504
263442 290666 407
885057 818945 525
557518 123668 470
900839 734315 525
332064 192357 443
291226 53125 443
715343 836484 468
204064 184919 360
971236 233725 525
295985 958941 525
995467 122871 525
272087 656414 509
