210948 822405 509
208376 995471 525
685390 98175 509
140029 930757 525
879375 613013 525
628005 937166 525
47505 365835 443
108200 977687 525
492252 307813 449
73120 661656 509
134439 288067 443
645801 226475 509
459098 152038 449
207289 194377 373
139929 420736 449
631210 353145 509
819934 758255 468
901628 927339 476
173834 17370 383
423945 781576 509
113631 336551 443
860805 242918 525
288065 908914 525
665939 313375 509
713922 507611 509
162314 670613 509
698862 387960 509
753166 23925 509
182062 347067 443
657092 996704 525
753762 53646 509
137182 166518 383
544016 524560 408
783971 200738 509
971406 21065 525
326852 136290 443
454632 515975 470
813667 511134 509
519350 776483 509
526573 243723 470
497851 108641 449
985906 838917 507
410039 453709 418
924034 839101 476
82243 779444 509
523787 940264 525
492361 574325 470
371607 701620 509
436483 468741 444
644632 444524 509
252426 305565 407
586158 825124 509
456784 425832 400
758450 195630 509
336539 482693 449
175640 738205 509
511337 51927 449
502758 703924 509
570898 565097 377
230891 710478 509
602252 370140 470
745536 11877 509
959859 573485 525
528401 179727 470
703209 537078 509
926515 555282 525
180821 75373 383
691675 389330 509
967757 201403 525
246623 59330 443
374488 241771 441
353494 799058 509
46668 862728 525
638490 15856 509
349858 311312 441
933249 823327 525
18532 515592 470
433693 366889 449
146902 892920 525
838829 138152 525
981020 3482 525
849395 903159 445
426389 245222 449
877692 879316 357
256680 717555 509
457556 416431 418
706758 28201 509
273010 477954 449
961841 22324 525
482103 105552 449
612543 746285 509
465022 986056 525
104364 451108 449
284171 474628 449
432542 133589 449
452661 617689 470
459601 945618 525
30090 654702 509
63405 539507 470
486982 835782 509
227096 530782 470
120516 816477 509
470826 525032 470
885449 346996 525
940842 757249 525
178200 775007 509
63236 841104 525
268129 302374 407
601605 798845 509
506049 788173 509
602088 225407 470
181761 86046 383
775344 860922 525
744853 586950 509
521221 891825 525
275144 558030 470
18203 477312 449
925212 235085 525
806749 755842 468
368880 696188 509
208674 795145 509
464935 873288 525
334583 939203 525
411391 746804 509
425919 828480 509
407420 446068 449
625903 510326 470
663663 736005 504
984806 489284 525
900357 665357 525
909230 729588 525
315180 262894 407
123138 429354 449
188300 663024 509
951922 812415 525
241487 539702 470
47649 360185 443
352132 248447 441
119010 2805 354
798847 90158 509
518833 830602 509
28358 375411 443
90363 761889 509
30455 916741 525
70531 468217 449
608120 354931 470
356159 632689 509
824873 471699 509
920806 255907 525
859520 851868 419
384704 483394 449
269840 9394 443
748840 755129 424
869442 367319 525
83761 598237 470
466630 129467 449
33808 282833 443
588121 133963 470
245457 908515 525
823868 647016 504
953107 922697 507
85312 644822 509
841974 808848 525
851731 360921 525
262393 659313 509
523570 572592 452
832684 634151 504
773891 944955 525
366322 716759 509
232056 148105 443
986986 608894 525
657044 889953 525
899663 903440 401
686905 567502 509
304976 654463 509
708238 624204 509
380192 330692 441
424816 368037 449
285405 14157 443
70812 72599 325
983835 470969 525
223553 940644 525
151835 49589 375
957583 139515 525
992556 731445 525
302124 341021 384
623639 965928 525
11848 646292 509
198803 417531 449
852594 259343 525
717517 636949 504
866377 385141 525
446826 664400 509
396509 428027 449
8542 164356 383
374714 865480 525
377333 154497 443
55358 824004 509
37338 290762 443
976901 55944 525
695364 771895 504
302591 700040 509
867965 868007 251
483648 162565 449
978413 712090 525
337806 913462 525
57209 967935 525
926385 709671 525
623708 106209 470
34373 159660 383
123306 805639 509
864200 403451 525
197836 547054 470
650211 927843 525
882636 659761 525
927201 809196 525
30701 818439 509
989549 837947 507
455134 178251 449
703063 101642 509
293790 728580 509
102722 142061 354
757818 630026 504
921455 800431 525
435009 55998 449
151239 632080 509
656391 788219 504
43738 162613 383
855728 638625 525
939448 233809 525
281067 207790 443
886904 656018 525
696014 816431 504
638089 610666 509
848096 648042 525
736801 700247 504
24082 593698 470
545714 421639 470
865935 679983 525
325050 916094 525
756388 981130 525
371308 541586 470
835665 958033 525
803703 862615 525
197760 750464 509
63440 766511 509
403649 78194 443
343020 559266 470
179866 797237 509
26669 419739 449
928742 480271 525
941915 844911 507
207379 572174 470
105885 758347 509
111720 888755 525
574837 904341 525
745491 795682 468
173410 272569 443
365050 95993 443
275563 387806 441
830393 152509 509
897270 889345 370
570038 290240 470
365573 983286 525
384615 23839 443
154702 72430 375
725947 445239 509
528881 446378 470
852102 93409 525
204854 687346 509
196033 244842 443
43995 511187 449
372995 582640 470
973313 94600 525
344637 666163 509
754114 83898 509
992709 289186 525
673871 799678 504
582259 477159 470
919243 737349 525
