210948 822405
208376 995471
685390 98175
140029 930757
879375 613013
628005 937166
47505 365835
108200 977687
492252 307813
73120 661656
134439 288067
645801 226475
459098 152038
207289 194377
139929 420736
631210 353145
819934 758255
901628 927339
173834 17370
423945 781576
113631 336551
860805 242918
288065 908914
665939 313375
713922 507611
162314 670613
698862 387960
753166 23925
182062 347067
657092 996704
753762 53646
137182 166518
544016 524560
783971 200738
971406 21065
326852 136290
454632 515975
813667 511134
519350 776483
526573 243723
497851 108641
985906 838917
410039 453709
924034 839101
82243 779444
523787 940264
492361 574325
371607 701620
436483 468741
644632 444524
252426 305565
586158 825124
456784 425832
758450 195630
336539 482693
175640 738205
511337 51927
502758 703924
570898 565097
230891 710478
602252 370140
745536 11877
959859 573485
528401 179727
703209 537078
926515 555282
180821 75373
691675 389330
967757 201403
246623 59330
374488 241771
353494 799058
46668 862728
638490 15856
349858 311312
933249 823327
18532 515592
433693 366889
146902 892920
838829 138152
981020 3482
849395 903159
426389 245222
877692 879316
256680 717555
457556 416431
706758 28201
273010 477954
961841 22324
482103 105552
612543 746285
465022 986056
104364 451108
284171 474628
432542 133589
452661 617689
459601 945618
30090 654702
63405 539507
486982 835782
227096 530782
120516 816477
470826 525032
885449 346996
940842 757249
178200 775007
63236 841104
268129 302374
601605 798845
506049 788173
602088 225407
181761 86046
775344 860922
744853 586950
521221 891825
275144 558030
18203 477312
925212 235085
806749 755842
368880 696188
208674 795145
464935 873288
334583 939203
411391 746804
425919 828480
407420 446068
625903 510326
663663 736005
984806 489284
900357 665357
909230 729588
315180 262894
123138 429354
188300 663024
951922 812415
241487 539702
47649 360185
352132 248447
119010 2805
798847 90158
518833 830602
28358 375411
90363 761889
30455 916741
70531 468217
608120 354931
356159 632689
824873 471699
920806 255907
859520 851868
384704 483394
269840 9394
748840 755129
869442 367319
83761 598237
466630 129467
33808 282833
588121 133963
245457 908515
823868 647016
953107 922697
85312 644822
841974 808848
851731 360921
262393 659313
523570 572592
832684 634151
773891 944955
366322 716759
232056 148105
986986 608894
657044 889953
899663 903440
686905 567502
304976 654463
708238 624204
380192 330692
424816 368037
285405 14157
70812 72599
983835 470969
223553 940644
151835 49589
957583 139515
992556 731445
302124 341021
623639 965928
11848 646292
198803 417531
852594 259343
717517 636949
866377 385141
446826 664400
396509 428027
8542 164356
374714 865480
377333 154497
55358 824004
37338 290762
976901 55944
695364 771895
302591 700040
867965 868007
483648 162565
978413 712090
337806 913462
57209 967935
926385 709671
623708 106209
34373 159660
123306 805639
864200 403451
197836 547054
650211 927843
882636 659761
927201 809196
30701 818439
989549 837947
455134 178251
703063 101642
293790 728580
102722 142061
757818 630026
921455 800431
435009 55998
151239 632080
656391 788219
43738 162613
855728 638625
939448 233809
281067 207790
886904 656018
696014 816431
638089 610666
848096 648042
736801 700247
24082 593698
545714 421639
865935 679983
325050 916094
756388 981130
371308 541586
835665 958033
803703 862615
197760 750464
63440 766511
403649 78194
343020 559266
179866 797237
26669 419739
928742 480271
941915 844911
207379 572174
105885 758347
111720 888755
574837 904341
745491 795682
173410 272569
365050 95993
275563 387806
830393 152509
897270 889345
570038 290240
365573 983286
384615 23839
154702 72430
725947 445239
528881 446378
852102 93409
204854 687346
196033 244842
43995 511187
372995 582640
973313 94600
344637 666163
754114 83898
992709 289186
673871 799678
582259 477159
919243 737349
