502422 779691
914452 520123
539018 736167
246243 861281
438232 925465
731988 486512
804672 65290
446711 678410
480395 520640
943971 715095
332006 355685
265597 609890
920332 949308
367608 118066
344756 668532
866063 990968
384993 25923
759781 771028
58 871136
76172 245424
98847 880472
491229 997445
260497 821848
287861 965787
325958 450537
576411 891289
836215 751682
305224 520651
540721 624646
761751 866408
78385 293051
259014 679937
811535 412801
200818 257391
430913 350573
914344 452779
602037 487011
940602 239573
891032 75827
439168 417677
37790 888011
922645 937182
844745 263373
713240 127569
675042 288717
107383 713956
802845 81750
425507 286760
487180 899895
547412 625689
676482 763916
915893 408227
28212 235437
201668 126157
238647 41645
244646 677095
917289 433110
994231 249880
735636 554203
792415 468841
276608 871461
211102 784470
697074 877272
69442 549912
349329 371323
167643 11318
866527 766460
742104 575657
360102 990076
129056 162347
380777 381692
523792 647489
149535 710978
205092 200858
736195 664328
27365 100193
425714 125351
332570 523851
13192 861359
38337 119002
433407 22162
127742 56767
714958 562973
487937 539270
805208 240178
871604 284336
517424 868623
296340 645035
771122 598345
526954 580822
352915 115968
136080 886181
836167 317143
241107 721194
77813 354775
951868 35259
586654 454875
753404 448419
204186 329653
600396 474828
53886 746725
861867 414634
638118 242055
20954 669007
486835 501040
546424 656358
163063 655732
67283 490715
478343 612639
372030 343467
7559 599400
714300 182862
712969 707052
777999 958733
231056 857796
933592 704240
715016 366919
566339 61661
473786 439332
422204 628342
655586 381053
722521 337069
437076 88712
563752 719783
353983 808054
355626 346151
915261 296612
194065 421057
617762 236944
128355 533663
854681 543601
579905 53070
589522 433557
853804 615185
969261 901736
692220 965639
129727 430944
490864 476377
333483 231343
455383 751904
406327 444391
744777 265028
426710 464396
652959 112195
644792 137739
908954 959725
263286 575358
921982 959384
232251 626710
462606 264049
631040 52043
75976 759922
333108 60148
625645 298924
788406 290897
724968 105554
238582 154433
42411 812405
733162 835036
456187 578291
862399 309895
137462 578725
906534 746349
859639 476974
80679 600244
604401 47512
316391 964954
413659 563763
275751 824764
745771 576781
167295 203903
694326 151137
970466 298068
108408 345692
714844 247571
736829 967064
608556 716127
862692 448332
128514 396081
301373 218538
522785 593886
697083 92760
180211 351391
324153 419486
521590 904311
789686 290381
265457 800496
39294 24604
695398 389054
114125 749199
293327 863253
239867 366828
812386 663002
293146 543976
784837 398822
235973 516770
819344 530193
203502 755921
856786 702215
209678 109295
278913 445784
158578 923289
728413 805835
460860 848894
134425 718327
546186 366351
643851 261736
691180 301547
893104 356330
518905 541375
641006 992624
198554 44005
778808 347513
578914 116438
31162 52577
881284 123962
54114 109767
360693 834669
485569 118090
762219 695860
824786 678727
875099 992642
274810 52060
595080 209450
325026 845880
315932 25880
176864 57105
942004 51110
758096 633455
793212 898138
246931 935589
446420 151610
889178 983100
163845 478952
938218 166362
799624 905155
16762 418975
123273 560550
482180 581549
870374 149192
942061 162413
278947 642593
472982 420347
356612 859342
488817 458710
757823 412598
293121 547614
243758 918926
863028 114043
447907 876537
12533 275003
463343 297351
308991 162071
144112 805249
709018 908736
279229 777919
681914 128641
183688 215648
809606 249908
24725 235512
145147 919861
941581 178229
194107 926661
18232 155182
860368 670089
490703 971776
412151 780658
637511 455513
977602 405023
693589 608588
270681 426966
180136 787827
512182 297172
638494 311121
846656 355103
392177 750654
5199 673424
480413 591532
674318 465512
909195 920150
958255 481796
91475 286243
728745 985648
849793 520549
547670 99651
946203 493946
671326 853532
