743105 477191 509
517456 93728 470
725827 37745 509
701770 37866 509
544252 384478 470
284296 25549 443
929007 4613 525
75507 831654 509
20712 756491 509
927604 232916 525
219024 958593 525
150364 146416 370
652666 942058 525
211955 399637 443
782105 721238 468
521873 834587 509
430334 591060 470
741344 883743 525
247198 73260 443
238088 310108 407
382875 309929 441
463426 377538 449
101524 309689 443
710307 595281 509
980034 551246 525
543069 715189 509
632568 529248 509
666279 579579 509
70149 557552 470
279604 610165 470
950573 241400 525
396530 820399 509
218950 148925 386
507161 101857 449
233702 552915 470
40086 505262 449
881876 966110 507
325294 287978 389
223262 482944 449
931062 862644 476
569341 47090 470
853396 161746 525
142624 539191 470
308707 804431 509
139960 613594 470
27638 35564 311
281188 706101 509
687695 129375 509
132852 386151 443
480237 630679 509
920047 223596 525
236096 314687 407
570243 930637 525
587435 613828 403
316273 376083 441
689000 26101 509
344159 33667 443
644173 16642 509
340208 457462 449
76371 196339 383
880682 662647 525
788048 58676 509
508807 695823 509
330280 584534 470
113586 624573 470
803258 259559 509
628890 434532 509
475217 804824 509
336099 733804 509
73979 577514 470
131528 439297 449
20897 733972 509
317198 495846 449
702818 823820 504
123440 54282 354
522777 643527 509
320700 415311 449
643647 765105 504
536976 782818 509
341514 101459 443
361571 255519 441
834580 409325 509
294609 979764 525
271474 866506 525
890020 448406 525
105788 705397 509
80998 495349 449
599612 38932 470
494481 521362 470
953882 14730 525
60605 374026 443
516708 39363 470
350130 711527 509
8825 761910 509
329302 222365 443
347651 243871 441
187261 751044 509
370605 203229 443
840298 358170 525
782807 987292 525
186853 393440 443
780183 448381 509
610673 299866 470
215705 161093 373
549727 672969 509
31795 68610 340
21487 16288 279
654872 851155 525
560111 289335 470
402161 73734 443
184379 350438 443
654167 639050 416
660634 258669 509
671949 609770 509
937675 114405 525
34468 190575 383
881600 239204 525
835824 613997 509
729562 268901 509
352768 657435 509
926427 765024 525
11683 772460 509
587799 491725 470
444839 66621 449
336165 469516 449
286813 801131 509
401270 642342 509
438133 900164 525
693350 166247 509
617805 145927 470
961841 233273 525
688055 158735 509
791208 378439 509
464126 91606 449
124507 43693 354
580336 598939 434
198763 731859 509
319960 633874 509
455750 234081 449
955145 459717 525
274534 324453 389
707902 275085 509
784787 75769 509
778982 837136 468
676724 927712 525
903292 137572 525
815310 932833 525
643650 923226 525
483194 302730 449
550783 233066 470
891148 542449 525
354347 37044 443
947481 530044 525
283569 195097 443
521132 107484 470
107224 368505 443
164155 887259 525
26195 484068 449
870951 147294 525
968612 936101 507
478044 229787 449
596615 253356 470
889334 437799 525
486660 127166 449
543836 827713 509
12930 464600 449
187224 306112 443
742548 906493 525
805787 760652 468
460664 692250 509
68089 441177 449
177200 729729 509
627755 692695 442
202224 188089 360
449197 882321 525
906071 733724 525
389069 160696 443
419123 969371 525
847068 788497 525
98855 22840 351
203022 892435 525
944692 130766 525
697173 754490 504
659156 329071 509
597501 74737 470
967945 654296 525
875124 684144 525
508908 287468 449
1746 927001 525
701176 532218 509
39211 446005 449
109726 522607 470
305184 61482 443
655655 440395 509
977506 65944 525
629275 696218 442
700061 839812 525
256911 417686 449
802417 333808 509
730921 738823 424
968700 266719 525
611651 922124 525
967289 445431 525
921100 757734 525
665464 483364 509
650270 375480 509
182401 295212 443
165584 360437 443
628314 947990 525
906973 766952 525
22836 416118 449
581528 433928 470
204657 571757 470
816073 360896 509
466954 779809 509
8623 573571 470
870803 409298 525
151676 361770 443
198795 50034 383
219743 113195 386
575269 365730 470
828570 77094 509
293728 432994 449
227675 209736 386
954377 860933 507
165466 572653 470
744694 124223 509
570995 778140 509
202446 838520 525
810059 458839 509
929612 666953 525
944966 881050 507
648787 403763 509
432706 747931 509
565903 207757 470
974694 818185 525
912840 829125 525
919562 980625 507
82407 68657 351
622965 121680 470
472805 911768 525
398373 43556 443
128294 188879 383
451198 234861 449
123494 349654 443
795835 230787 509
534191 885952 525
134480 672413 509
471910 988567 525
730361 95741 509
986621 434837 525
374192 667518 509
548665 745519 509
907365 433686 525
809177 819357 450
196652 577130 470
411829 44046 449
439923 905544 525
160751 107406 383
912059 606413 525
299789 369626 441
368310 897471 525
17850 726639 509
160074 220818 386
621113 697390 509
782960 507803 509
946801 876197 507
274112 775443 509
754651 160731 509
328496 4365 443
307540 828844 509
192246 527559 470
811447 379226 509
83092 726130 509
251752 280877 407
89015 354438 443
292522 744981 509
687516 138603 509
284201 515920 470
693402 725852 504
794611 670470 504
198128 231234 443
908122 337914 525
723763 584202 509
364786 751434 509
725939 456228 509
537455 737577 509
401280 635835 509
549354 975883 525
317461 364671 441
675603 272990 509
29219 190092 383
413709 297583 449
344897 93081 443
339537 264044 407
438624 990949 525
734395 243046 509
458227 135279 449
993170 874263 507
84833 876128 525
