490757 56451
326920 529593
951452 237338
693929 476482
142041 492378
971791 727969
73862 48402
722017 72523
132725 393878
445797 144252
452049 70119
408458 91022
493208 642358
457476 969985
429785 886572
938315 762492
891553 974791
789204 441543
122445 435791
773164 990616
163097 582448
737408 870282
516917 388123
364919 912783
153955 504381
926571 760849
607346 942515
717248 287084
581058 582483
561478 778118
887389 725970
576458 98875
564755 875618
443424 165870
62187 784811
975161 407969
14487 997484
602569 897654
463430 579569
401617 206630
733536 779861
737587 578948
183740 40425
3653 419490
341820 471076
683550 214164
281637 326100
813804 131301
915595 717659
551854 954329
346929 857290
156498 648156
880837 836726
266870 604398
123468 843055
366337 208781
633042 327937
548262 70911
192316 433000
617139 457233
274393 600544
159674 333158
128428 614053
138351 623300
791101 19948
832071 821161
987602 763530
689369 635934
700049 104886
259248 20421
885137 701472
313050 757968
839068 372214
381125 773001
500353 11865
921971 881083
13404 109703
286389 9088
131957 957258
265617 231281
355717 943059
325978 330037
772450 355188
332924 631102
338625 690558
909877 309314
953705 683855
347258 955222
291728 203051
470250 103552
590613 902379
804506 369278
449434 924073
558290 733722
246117 674701
37757 220312
52226 438576
845830 60358
24327 130707
592465 974357
562758 427183
447256 660729
962492 384849
372331 791730
59829 799760
814626 608031
99365 782034
825451 737478
829 121462
767553 722235
927503 425654
32420 809069
548448 586579
556723 699008
961550 45972
557440 401910
13779 399314
470830 259645
614470 283995
94203 681051
985340 310740
370337 828249
714205 911398
489594 794450
371218 856091
192878 287091
45901 184637
397353 932688
454492 664380
739512 782741
578178 967856
24574 985575
138803 945857
254678 490829
667305 955427
185548 844738
839114 753379
572415 990573
547829 14839
161905 554139
854391 358074
200140 468487
115738 829345
235831 868751
456336 382734
899805 595912
203895 275844
132246 511376
461554 25074
118463 921668
922947 796400
787200 669747
879559 420444
874498 275957
1386 648662
169068 265808
25098 818022
26563 127207
443253 698880
913745 916547
778898 647047
141834 421853
860667 749559
367491 9348
280266 974538
4559 726932
530774 971663
65052 477454
291951 585998
403739 822346
342866 788192
140908 784423
527910 904832
754189 492435
212670 205763
339713 557677
404297 876967
871517 952195
892997 458647
494384 615286
120112 529260
957467 511528
492919 976557
878444 48821
878480 520622
364322 530029
577005 355216
797914 318624
477632 125991
743592 282356
80351 409802
804986 964480
60192 754469
765816 13127
965773 229497
961294 478450
435475 520165
766991 351419
54737 946880
655238 895663
440776 235656
61174 331373
69468 330671
857549 95818
398771 479600
819994 634191
533668 129285
986573 817155
535085 181058
921826 216665
356797 897106
976631 560930
550508 728497
415667 201169
602144 355558
473602 344154
969011 828163
868137 636010
39648 60698
918095 985418
53204 189912
897449 507900
668941 711648
743204 205996
414701 693273
381323 59428
19395 245732
58108 108126
698547 758116
792403 636425
826885 99523
416834 232211
177206 134526
95064 907507
921866 522246
437686 896390
470744 43487
536182 715297
43121 294067
761118 846355
431302 239337
922403 186468
853416 895089
643757 375763
963276 436205
169048 707046
348179 853067
864504 998701
830501 637497
690394 985968
