31823 123495
969686 750417
49042 844700
962471 162507
531896 686300
867789 292151
309645 71695
628017 279863
221795 390618
345618 521118
11361 409497
289743 389101
560608 325421
625771 454603
920016 476053
242477 639219
224714 513196
199103 647070
301877 213968
143491 556019
488922 802434
352849 191917
858738 493665
230016 106386
984176 218016
405704 129751
360122 334215
369798 410107
843688 341609
206314 858488
510756 370279
967537 581609
129733 797603
309419 828646
444920 891804
745934 240925
49138 666325
488686 666214
999548 660660
478318 346199
87154 200730
220257 127515
58233 783483
373802 868896
246787 937628
948649 774696
9027 265493
855618 983456
589906 983879
468799 737069
894042 242476
5179 629971
635289 421819
600503 646815
572151 169960
572838 335286
207636 381163
504969 573892
40959 161434
272555 941684
229146 152911
656372 877656
386198 771734
855699 249958
62825 173692
83081 185872
853575 374510
175784 549278
269786 302946
282839 757841
116756 904664
115622 481581
306220 166944
726655 476564
117994 737976
752877 296453
846595 597262
272812 35785
864418 679685
156465 543543
952630 544244
174058 955931
323037 527512
915807 614053
586894 320793
971266 366271
309689 186458
28819 725217
734371 562078
583320 233334
276456 978110
418447 505834
686434 381808
61136 154094
723461 393747
932523 81459
877666 81532
473646 409876
437367 84121
499237 321916
502357 903709
42210 957621
782204 35467
534388 604150
470542 189261
27287 828356
82857 8118
740220 797549
306204 287783
809278 576160
874037 63062
43342 834213
846299 427224
140650 198641
188488 784459
606928 95602
886159 310678
477521 615513
840758 862194
661193 373003
975174 312264
959497 912986
955499 382189
808306 475393
412754 619758
890735 824828
804516 53892
842840 445551
424355 50791
469287 29778
493307 944860
680561 699049
73339 559170
888267 265150
429808 217031
867147 650121
255246 665928
171213 780299
650350 668820
272866 798789
342747 209446
425322 245742
704557 291450
640642 153216
476529 265870
703052 49182
66125 971606
454735 726614
294526 737625
92424 809243
334222 299685
817515 896936
593532 758697
387353 348453
633807 577153
778750 960668
794390 953235
103621 109894
940035 164222
238866 74918
430787 82681
611723 79779
852417 154970
975930 845367
973824 78213
473931 468002
983870 381838
591656 185921
230303 255994
866523 548209
370864 163357
903412 67241
13823 458348
817948 305826
178356 44633
541858 373615
99832 7059
112408 755639
836863 965042
475276 177156
858098 111601
144014 60101
703601 700011
975918 926774
8171 177897
341954 834231
818613 444113
838450 231915
210299 366521
558918 305973
604394 361067
258628 583286
468412 801907
447602 307044
920330 791018
518448 913611
749068 753758
86019 490868
150593 529805
768915 559155
723040 835881
33452 960038
140193 309150
62856 781350
106290 905724
97693 798063
207026 266858
545048 14539
576376 775605
872426 7275
620681 669634
686586 219187
823439 426430
982648 17970
692577 354271
608211 13438
53659 651825
491007 609158
679071 685580
854729 591001
537308 918621
619309 652753
44133 338635
59561 304536
461220 247377
826581 193852
238076 681846
808840 893064
632359 95112
552912 115149
836573 48038
870937 853664
319894 822419
962045 988598
291172 437565
581374 472686
686687 281940
303749 791933
