10 1000 179
915401 25562 525
1 1 1
22142 22142 132
883829 101639 525
25562 915401 525
266180 820231 509
10016 600257 470
480441 130206 449
690037 332586 509
22142 129198 354
134133 888874 525
807743 489016 509
691669 971275 525
535353 213083 470
569621 852376 525
487593 189975 449
595348 883829 525
567684 169239 470
101639 71898 351
299376 530422 470
73533 468744 449
292356 337535 384
781580 419176 509
877236 135216 525
889239 591949 525
994436 97333 525
328535 748254 509
291616 163709 443
763095 371035 509
752033 979557 525
184670 483287 449
212845 74996 383
49482 877735 525
600897 275250 470
572554 491937 470
820474 180878 509
261170 306676 407
207809 264231 443
195729 133244 383
782057 58685 509
847598 56470 525
211380 127979 383
863802 880775 432
374196 158976 443
102010 617473 470
879186 996024 507
821232 452005 509
898989 768598 525
752663 464925 509
286213 205434 443
930017 574489 525
398163 74582 443
865654 764367 525
642045 985410 525
765714 264633 509
561698 463796 470
14395 802434 509
626054 462606 470
496065 591861 470
869174 653290 525
51485 532825 470
391258 927471 525
247796 877192 525
376956 492553 449
21658 881446 525
967286 839676 507
711077 840762 525
128371 564750 470
19601 130094 354
110226 780465 509
288079 901336 525
722933 130168 509
435685 35541 449
923140 73357 525
286036 422838 449
383226 863116 525
681164 888773 525
292370 494813 449
562002 14287 470
596519 983471 525
603811 712676 509
41068 352372 443
77411 701131 509
762684 320437 509
717265 188068 509
639717 343418 509
318208 369391 441
683672 437928 509
407792 770748 509
654732 60359 509
179610 141330 383
383366 452097 449
684777 889109 525
849000 897707 445
740735 603487 509
618630 977800 525
747112 637603 504
90402 340329 443
942929 752605 525
9574 564081 470
316517 594179 470
737105 409474 509
403751 711804 509
312613 608495 470
444160 629638 509
82175 360337 443
121045 639673 509
957363 497598 525
801985 447765 509
720412 649043 504
766060 243732 509
61207 370697 443
737375 658675 504
10259 411947 449
9280 785187 509
58262 222898 386
43421 275078 443
845311 229608 525
131698 571970 470
609239 685527 509
92656 944728 525
51318 287383 443
21017 202784 383
410647 321158 449
531524 977312 525
434497 40963 449
426148 405527 449
376483 589114 470
837978 483575 525
197955 948917 525
21940 392870 443
495041 60077 449
167962 74777 383
54368 329705 443
230798 473785 449
893639 426250 525
414352 121568 449
192866 329602 443
781950 309912 509
398946 850070 525
901839 973727 507
374785 703107 509
965106 247505 525
257373 468217 449
447528 139420 449
107424 401333 443
550577 201319 470
332068 886598 525
797923 779100 468
461226 367557 449
15446 654647 509
542091 747730 509
852526 802759 525
311675 855664 525
368794 286336 441
77433 949705 525
659979 715258 504
725483 182989 509
508853 67938 449
90461 527223 470
158832 674531 509
93917 512331 470
265250 636585 509
278481 202513 443
203680 352791 443
807460 899934 525
186291 949196 525
186334 943139 525
803168 302326 509
921351 345532 525
96711 853324 525
297771 705838 509
470031 461257 444
76905 719769 509
52014 484620 449
822651 727929 468
518880 12358 470
632657 303554 509
503734 272482 449
274412 904746 525
584235 798574 509
805223 61896 509
205529 361590 443
124495 20923 354
977824 372868 525
80103 381567 443
978021 742389 525
269788 636419 509
876823 351480 525
156327 680009 509
924355 365919 525
976485 259922 525
430851 23927 449
646126 684070 442
596812 147576 470
921439 478025 525
983100 530085 525
116544 338581 443
945801 166254 525
399572 875425 525
500174 681210 509
60139 367157 443
260052 957871 525
708141 615496 509
909357 61619 525
806353 410576 509
477858 21092 449
274075 163891 443
