388102 524230 470
954871 68736 525
453763 244062 449
167833 718228 509
548924 574366 421
287704 475253 449
175805 613958 470
1084 693120 509
236974 526550 470
734753 610660 509
880691 530456 525
522891 840108 525
719899 206547 509
195728 592040 470
237952 85591 443
568320 569059 359
599949 573719 434
366655 915276 525
967475 145549 525
477961 132573 449
265305 515569 470
321385 705258 509
248659 585109 470
488327 945437 525
330174 332711 353
728247 888477 525
311114 793274 509
969953 224807 525
575757 459254 470
780277 895269 525
785757 933668 525
377259 537584 470
271617 829619 509
873021 300181 525
704388 702747 349
317511 158102 443
434935 344159 449
308855 140109 443
270916 928294 525
481400 747829 509
349863 885382 525
316046 491504 449
51097 302097 443
332058 622940 470
786587 153616 509
581312 467713 470
469164 836204 509
938415 981190 507
766907 517636 509
391499 717529 509
641911 728393 504
801816 75221 509
849199 328504 525
920439 289728 525
666996 845034 525
857567 823488 525
272969 278431 389
681209 458232 509
376422 507733 449
832310 610038 509
558120 16770 470
131012 891152 525
637648 880539 525
225238 364419 443
130827 748868 509
143233 737630 509
648306 208487 509
612843 200695 470
543114 604255 452
891124 294447 525
371238 963431 525
772503 974042 525
25247 13192 282
283422 225353 443
595025 489921 470
147283 925596 525
73472 201620 383
750368 535117 509
496658 412502 444
254299 281415 407
324710 950496 525
235394 858569 525
188495 386610 443
593909 31654 470
500666 372382 449
748013 382307 509
729038 446334 509
92298 119937 354
464145 546998 470
186093 196845 360
254378 634981 509
38458 473322 449
978783 601733 525
136571 189867 383
818077 169985 509
445635 84872 449
307214 402045 441
301928 7594 443
134809 598507 470
449441 414314 418
786378 357268 509
684031 812382 504
565061 838060 525
462449 140002 449
653855 845972 525
620556 925945 525
280271 635849 509
394997 974680 525
44540 299049 443
824008 393157 509
514892 764341 509
912850 265436 525
349349 643795 509
190840 744187 509
849341 17497 525
208287 905455 525
412294 773692 509
243415 107588 443
192303 279515 443
587284 165506 470
251268 559879 470
236620 961405 525
471624 959874 525
214645 159111 373
302881 37070 443
516962 812682 509
384816 632205 509
201002 488355 449
281244 242980 407
879795 32214 525
504563 647529 509
396611 633489 509
929298 333386 525
960105 899185 507
611394 912377 525
596095 397360 470
486713 541180 470
754124 157686 509
700727 791775 504
182161 493305 449
473685 943394 525
318246 947919 525
89632 782632 509
792475 700788 504
569931 86091 470
108034 180988 383
711920 153913 509
719059 231250 509
566974 502195 470
793891 951309 525
940649 474832 525
791826 616003 509
564855 967842 525
821171 15458 509
721162 876146 525
389835 200231 443
229768 718417 509
386712 212324 443
891918 857044 445
954398 435949 525
28956 409281 443
964207 638753 525
454818 566151 470
910495 406917 525
93270 271184 443
758366 894037 525
901884 388005 525
938139 788120 525
949482 152781 525
850948 207377 525
253765 311906 407
127244 697017 509
736465 767663 424
73113 505587 449
875393 454394 525
970154 476202 525
757546 608052 509
638999 80907 509
156903 971583 525
170953 713551 509
563581 703996 509
262953 789997 509
427201 710846 509
102331 51728 351
103819 443979 449
142599 708721 509
133651 244258 443
455220 715175 509
823828 214229 509
503384 197116 449
892591 541513 525
843079 141754 525
261156 244723 363
633389 629348 385
102366 743602 509
713121 32822 509
909358 550693 525
654065 62761 509
456902 166210 449
982939 447470 525
114658 845763 525
600413 960630 525
771549 27713 509
584586 694636 509
969883 218203 525
278969 632100 509
346590 298739 441
831342 838350 525
40505 561626 470
152625 688166 509
537477 533068 377
65101 247374 443
620282 402594 470
799247 172102 509
881293 482116 525
816311 682163 504
451500 454868 369
936695 282252 525
466763 407123 449
166842 752951 509
254049 896069 525
77975 265572 443
235163 582258 470
317946 460110 449
302643 95594 443
311495 751581 509
305871 649330 509
550544 582462 421
370253 130986 443
458056 889145 525
646136 902370 525
456941 429912 400
448982 676200 509
177139 603650 470
775573 832778 468
197725 598746 470
109883 290360 443
999490 729147 525
191529 436177 449
899579 670899 525
518053 534436 439
229726 569754 470
996756 754324 525
281323 733848 509
16415 471282 449
824756 49852 509
503322 207368 449
659324 102801 509
868180 857344 388
377984 574778 470
520495 44481 470
465266 20248 449
433158 409779 449
472139 249689 449
314807 588099 470
395177 636344 509
317151 120776 443
