246571 412589
121754 705765
434185 358613
514548 805128
378438 492528
576064 508589
520688 83160
221126 311401
624207 266934
200313 350565
220975 173289
614981 601005
37711 914899
176267 512070
620082 470504
963328 644291
425742 287557
50622 1133
105866 554630
963983 298364
804539 253697
251750 511946
71866 801647
469871 37386
483551 863713
375516 911339
303737 28222
997210 693747
608371 953740
786754 980485
467651 814605
60881 60724
64456 14141
925242 651929
4487 634758
599896 914405
126532 690158
607471 511362
109223 523722
789599 678611
628609 575666
539267 827416
285737 207460
404242 935879
513656 707366
721699 909878
633248 907594
718661 874120
909262 149813
615784 641195
542507 399576
401698 189449
496885 60103
373032 585224
974482 807987
687947 885121
216428 693306
595493 209040
246426 111260
321505 332472
620669 427884
614284 610586
494701 920323
139841 557594
64481 716042
895777 35991
180664 260411
586425 164506
358998 619077
566537 311697
47377 810640
345801 846134
262317 763674
741109 704034
768928 571643
151170 506642
53210 329098
482814 965981
883939 91100
594218 382706
11582 953233
335332 275593
353225 176371
556378 227156
193580 720870
816999 586141
294540 159478
662839 375713
677587 545964
816070 121627
886287 558417
791491 522566
317876 65204
744067 867700
624560 361915
433837 663807
513145 68909
283187 721365
641951 972936
177765 486889
174854 964059
71743 695728
221433 34917
64550 805752
410579 304254
138058 636190
473259 577825
894630 629995
362236 406553
540061 712159
863721 617922
291636 482681
752915 629959
648206 393633
648499 367961
237408 419426
657873 394645
128642 335857
345063 791780
709153 32536
652448 945311
968766 598960
778135 464796
565919 896466
358773 346568
959177 418657
969395 576762
2263 251628
418514 923292
620674 977766
216288 46352
860393 142670
692175 80222
572719 723029
742522 754933
207889 410224
986498 474033
22292 449721
687422 49289
32609 625130
295905 368848
463032 124889
101363 249436
800017 233694
454158 155097
450060 33078
223496 437706
740047 222854
101151 153704
859018 812947
784061 362859
383726 175445
598008 228546
863815 215592
89593 478882
146681 677618
664065 848013
793338 810094
225456 969919
532509 494679
110001 635111
515724 851805
264017 773274
548433 172288
168800 480069
740004 501008
503191 185483
294246 830654
261250 29668
939135 135292
241661 479760
765547 921082
708200 645406
892870 74619
129792 618713
262274 83184
542884 792183
122730 553243
456759 221136
577292 727528
199550 528021
421543 191984
14754 858628
4852 429028
694227 994435
370988 630546
196276 50755
196746 346838
109172 995489
547166 285856
849490 385555
383415 927589
620423 184005
108427 26957
400443 662862
794950 506735
218660 59003
183984 831189
899209 585238
791304 292874
259413 861847
989295 218675
103661 657873
973951 686189
861816 137235
293687 938476
479062 581877
819403 201308
976897 513911
432056 894785
405478 49711
641066 277263
320828 569898
773971 196166
145622 578450
849820 38980
157711 958114
496642 564782
724092 564169
848791 448294
445132 966522
289934 835543
232541 740030
445570 850408
315220 600688
461174 533332
564682 164857
290087 346269
512781 529887
996842 372087
648049 848107
603529 3766
825013 563844
100682 360172
390074 624153
257634 428581
537186 72489
503223 818050
906076 795841
512642 502209
203460 107848
246403 52563
947099 689393
534179 648764
412717 988355
344634 645607
615552 942724
64828 822779
201808 386947
693507 196129
817182 644737
431348 757385
964690 373405
522836 169067
556174 309331
287986 367008
859579 917152
747801 254269
9757 714283
55978 22651
636610 359489
201130 90673
791396 81836
539659 641177
91783 731405
653534 539322
89722 645050
25396 318153
457698 139268
192868 704716
8640 976939
47872 641171
795528 867327
814263 88528
312403 977498
173174 855412
884763 171052
562411 613041
531468 956681
