260900 861391 525
388470 426996 449
766687 881239 525
773616 979641 525
838329 869185 419
789406 828780 468
190722 963659 525
351028 581153 470
924728 955043 507
660703 796875 504
807045 891084 525
643415 683843 442
500861 672515 509
499944 794488 509
536636 985112 525
653067 966508 525
277936 814240 509
929211 958423 507
427312 680904 509
613312 926905 525
410346 895590 525
618583 819499 509
956105 972728 458
649868 914739 525
90061 259843 443
946869 985452 458
102775 103445 235
913635 970665 507
551824 554400 421
839890 951848 507
552466 938671 525
185089 566518 470
922861 931143 476
963183 967836 383
890637 973850 507
189505 702352 509
47119 809934 509
774364 827492 468
806787 872067 525
470662 571809 470
692727 759450 504
719364 829672 468
987343 987716 352
571458 759201 509
605247 741278 509
154810 444132 449
847121 990415 507
428804 942681 525
657344 894532 525
474721 709166 509
539637 919056 525
438823 698582 509
550322 970927 525
437770 724665 509
358699 782881 509
687782 839447 525
977161 999505 440
434544 632598 509
693157 951504 525
778878 961461 525
699907 927684 525
214229 237426 443
106423 629584 509
398667 683807 509
57408 194254 383
820245 873621 525
190116 672484 509
934275 975992 507
409161 427301 449
441490 633072 509
842 985037 525
738423 853946 525
950893 964695 414
211874 415576 449
785802 789618 406
902710 933290 476
859959 951912 507
615145 780549 509
940167 978902 458
269361 581711 470
699890 879211 525
758444 958033 525
703262 740324 504
500723 979655 525
691526 699963 442
421785 538646 470
868286 879043 432
365365 580072 470
788489 919811 525
948653 975447 458
619721 690736 509
587111 700944 509
681986 858696 525
722155 882761 525
964493 990617 458
652912 932484 525
796955 865624 525
885414 966447 507
134703 807560 509
135037 938374 525
681142 921393 525
467301 619867 470
710698 779829 468
888114 905011 401
613913 851441 525
423035 551204 470
294053 506647 449
574994 735072 509
82950 437010 449
166656 603475 470
977790 984335 427
167156 875642 525
912693 988094 507
394756 735675 509
947945 955514 414
183325 556695 470
93535 333813 443
342719 433238 449
419409 518511 470
914214 949069 507
514192 702109 509
757071 805749 468
390616 471015 449
938766 968136 507
947924 990762 458
519869 786384 509
410950 565044 470
351102 493941 449
86749 992015 525
248523 440604 449
145584 617928 470
144785 964568 525
467116 505544 426
725699 974583 525
843044 912354 476
443154 471519 444
939687 971732 458
22428 871811 525
290354 804409 509
8351 561112 470
239496 323188 407
199627 500577 449
103189 881623 525
787067 974510 525
194838 629593 509
591281 805155 509
660994 706772 504
4450 467409 449
355930 691256 509
524906 995311 525
53480 940180 525
495034 894265 525
898312 973358 507
978436 994047 427
461938 727248 509
810035 941196 525
239304 496972 449
686333 856987 525
50863 553172 470
969700 976721 458
330795 614291 470
732377 817914 468
256991 383945 441
234513 265389 407
202574 302558 443
410907 677552 509
626273 889239 525
693057 986001 525
805799 914802 525
746151 780340 468
203368 592941 470
979129 999424 440
539751 868300 525
223164 902367 525
65644 67715 312
80047 412529 449
198405 843844 525
652477 803048 504
704365 835455 504
220768 418944 449
792605 896383 525
559423 739844 509
936650 998843 507
940671 957121 414
488599 902371 525
87446 555762 470
845475 888867 445
418993 609399 470
32655 907366 525
267974 390260 441
433728 881616 525
642590 734617 504
6087 649611 509
726767 842410 525
126181 780095 509
449327 561077 470
388074 850939 525
600246 855987 525
387142 563888 470
962009 988901 458
490346 563155 470
934714 985141 507
198381 385169 443
18598 840114 525
558912 715653 509
457917 778540 509
950590 997993 458
94899 846270 525
899733 909764 445
265396 548443 470
