142868 286050
173302 914590
52659 601068
969884 520124
142897 875971
691884 957047
172070 155639
663350 614351
916292 602403
455447 486653
526526 111883
222153 650532
581899 801270
227128 876706
13473 554553
789572 101995
697883 922889
36228 520883
398287 852374
966713 19255
82843 384726
169074 11642
853650 269473
589353 436401
739203 918934
771644 399860
649526 256377
18620 583653
85148 605917
373883 528444
795639 615006
766374 683735
244345 661923
262210 234920
177163 364300
529435 636191
454827 871910
64742 902668
339386 339168
910226 664561
708628 762271
209090 683530
223213 723490
797141 123772
769702 300403
342131 127029
780884 115703
569495 809389
141552 408522
423363 775459
811286 458913
724486 499407
34235 562268
635170 224678
528802 764496
321450 854654
447365 404508
541666 906054
136044 140306
12101 980049
301192 432746
695019 995840
797201 183739
613928 823182
265013 388749
271481 99530
292300 711981
37315 302919
950973 51569
222750 941387
196181 361667
944121 380051
723106 145932
115158 539982
130077 169269
751701 90834
540405 697353
276336 571347
714581 509941
146702 507167
999233 585983
887622 472165
773683 887349
712241 583501
429639 739681
405315 337396
623207 598037
283413 642874
303023 678375
721132 805227
338117 978106
222720 337182
633742 787480
38902 200571
834695 291924
859636 586934
612605 31296
129814 985613
202428 921528
858906 143981
554405 165960
531440 612712
348841 156990
736345 942522
543897 52616
601133 292296
149252 389296
684044 880643
958048 43993
813182 506614
100004 342024
45403 976672
262916 863777
135038 198255
736314 919354
890101 482101
69384 871124
490010 42489
856704 567526
251727 540422
22359 162156
693067 984925
394160 328725
650315 359696
34267 989541
487463 959794
855163 373716
345376 175736
928874 625605
256539 274188
289186 790337
720442 325080
83508 887779
580986 115430
310990 714191
137750 230745
597456 387821
435456 673703
792225 857336
45884 666791
965111 544412
60859 678358
908268 301096
335737 34995
592691 535834
910496 526491
835347 491969
147517 403468
779007 896740
131039 310708
6785 843667
360323 474325
698291 650264
570196 862465
16949 264407
246572 540534
565300 11380
237530 746767
800393 629777
333294 157404
607854 739333
680832 884801
8735 858671
775656 234045
864429 168823
725780 361444
8701 264407
886864 300695
104599 392728
294065 362637
979398 849224
918710 747888
283595 666247
326712 64020
740080 606769
135408 962154
255332 497185
268622 648267
122614 404453
641212 93308
261309 44154
993465 26936
25967 796342
689109 347388
973670 456514
205865 916439
339285 84985
946005 910416
637748 244624
799902 223038
65906 992732
926836 898536
425249 299315
463822 810769
188791 239487
682515 234126
143590 674917
578603 80770
746883 406463
103735 299870
533961 279005
646926 630010
887213 611221
746882 499237
65051 408838
957103 264927
552353 441420
54393 616005
757445 140768
171567 202979
466191 745393
197312 251603
456184 279758
883736 216210
694128 665397
173651 730339
528037 504546
343542 958890
219920 63750
315020 580716
