203472 600682 470
419417 630643 509
816506 396553 509
5769 932482 525
427247 504063 444
108875 661425 509
72302 822615 509
186284 375278 443
637506 478704 509
382277 107125 443
721103 201833 509
697774 271999 509
860449 352232 525
31546 280036 443
590581 942003 525
286783 454304 449
202014 611953 470
851319 433678 525
705303 266438 509
814568 628989 504
69622 83551 351
592962 89649 470
609326 297175 470
391696 817013 509
307947 165046 443
878256 595874 525
820948 429189 509
977308 563714 525
121205 517838 470
289455 333934 384
133003 934691 525
355296 743985 509
768989 172453 509
48656 435184 449
268868 310330 407
685273 609355 509
639465 719842 504
970942 132225 525
12560 13890 276
51601 397360 443
61957 175445 383
91749 810683 509
40010 515392 470
887919 388174 525
516817 695051 509
645929 320800 509
482667 475435 413
164582 395272 443
879432 684517 525
475704 30467 449
96420 223564 386
3198 350967 443
945193 981343 458
288100 727220 509
922226 689184 525
130113 580037 470
289216 294458 358
770112 839581 525
230097 768493 509
283622 268556 407
483210 989944 525
365821 116332 443
449705 732903 509
573923 669280 509
412683 558268 470
758253 580182 509
262523 670880 509
221167 109614 386
920002 404116 525
635521 770254 504
323543 188354 443
14767 92991 351
392698 742968 509
261656 904297 525
383230 723818 509
953610 413133 525
48393 12955 324
212394 925980 525
339326 887279 525
667602 535321 509
190219 727455 509
726868 311582 509
405848 985590 525
682232 755885 504
293842 391736 441
744218 12818 509
187299 168572 365
794758 443104 509
419708 501572 444
193961 572506 470
292168 222877 443
18260 95255 351
124420 548991 470
990893 407269 525
115713 774005 509
349672 622910 470
419637 582648 470
345403 652265 509
692580 351148 509
231880 736420 509
192666 71305 383
364015 416330 449
851257 856265 419
434220 780897 509
529060 245907 470
578214 614455 434
745943 54949 509
54415 896662 525
870994 838919 419
581145 258925 470
501112 755402 509
609398 612805 354
933110 416205 525
139611 342406 443
526662 559601 452
827174 50631 509
12519 398217 443
273191 179493 443
838595 313559 525
734820 119028 509
235907 23354 443
640041 799760 504
33621 952693 525
727897 878104 525
25894 987218 525
683974 610044 509
238872 840646 525
402136 99082 443
962660 926950 507
842343 221164 525
671894 522908 509
557307 802880 509
262802 427625 449
848351 538012 525
1558 50220 324
496735 46428 449
695953 157307 509
200820 843982 525
612410 712327 509
888183 776257 525
160960 79524 383
463217 235584 449
587763 644167 509
322859 277159 389
389847 598126 470
455504 14912 449
18934 145713 375
548419 321048 470
487860 423674 444
603191 758474 509
569851 534051 452
289802 125675 443
962859 788182 525
258229 911337 525
938957 208334 525
225243 458925 449
410755 723094 509
291910 982824 525
631927 77206 509
559017 506897 470
987326 602401 525
519578 831639 509
835743 252589 509
50907 571918 470
851143 132900 525
98323 730279 509
271264 438667 449
498213 395044 449
512938 599376 452
582907 742725 509
909818 941147 507
65513 754285 509
527533 693949 509
739406 532670 509
654687 251575 509
933105 707103 525
552715 858071 525
637317 677911 442
679174 873266 525
497384 83110 449
824944 252151 509
473955 251123 449
571306 82955 470
711617 438752 509
811420 868059 525
542577 66373 470
113021 182647 383
309147 138047 443
835440 876018 525
420361 24974 449
376181 431478 449
549377 542959 452
14458 336189 443
49660 638311 509
66922 28523 340
114985 200667 383
339377 20200 443
920517 45615 525
567903 177112 470
662941 610471 509
560018 827846 509
67560 739415 509
151264 920480 525
501601 129065 449
407671 796915 509
825145 805537 450
59396 326397 443
57968 958593 525
549494 514603 452
489524 271240 449
429097 736485 509
142207 295856 443
240934 884769 525
975305 23697 525
955751 826717 525
426353 88056 449
474873 748145 509
109024 457557 449
279779 584383 470
807755 148781 509
765851 29696 509
528240 215508 470
45623 842203 525
162955 802482 509
331034 144480 443
338796 791428 509
393975 585037 470
136094 549203 470
308406 982769 525
186026 896209 525
92372 332985 443
660223 92875 509
408250 132277 443
982101 680008 525
796662 502428 509
170588 788353 509
591897 204588 470
592640 19473 470
92789 54064 351
191050 917765 525
914241 473229 525
111708 721981 509
979583 208157 525
809531 7791 509
712805 748491 424
826860 102593 509
550937 338308 470
529785 548198 452
771642 249982 509
698898 207013 509
428649 102577 449
