978364 35666 525
351167 254477 441
817268 567900 509
50328 901865 525
635854 11657 509
877474 890131 445
519986 160654 470
275477 83787 443
728722 723397 362
136016 862733 525
104166 579885 470
821840 163068 509
461854 704962 509
835033 456140 509
716815 224282 509
538910 802804 509
108235 827960 509
275444 951095 525
485602 20315 449
69814 26994 340
494939 303558 449
507365 794663 509
993794 766597 525
635331 2323 509
668059 197125 509
71755 663477 509
756038 39008 509
279859 815918 509
24994 436050 449
393656 663443 509
408604 886155 525
492772 828416 509
1021 552134 470
853657 267118 525
251396 251475 288
810831 720740 468
550709 561021 421
840848 25542 525
194597 119277 383
65910 797026 509
902766 661468 525
990204 593063 525
875230 989291 507
809159 278680 509
681887 347714 509
74209 683427 509
602586 171669 470
499401 588113 470
409091 806102 509
475890 761806 509
643689 665469 442
111052 743255 509
661661 313792 509
137645 501954 449
774552 137523 509
471476 639358 509
51769 22149 324
201708 881339 525
673225 290868 509
771899 5169 509
535948 383238 470
24917 542108 470
294122 324430 384
778116 538499 509
149610 696332 509
317281 881510 525
59800 905082 525
907056 592890 525
558866 125077 470
521515 279740 470
485331 946024 525
338832 740323 509
549939 45092 470
627103 472353 509
262895 336231 407
965970 316101 525
120724 369311 443
908622 407867 525
150902 226151 386
475408 633342 509
327153 345304 366
999827 971080 440
983748 46047 525
446964 862734 525
486780 627778 509
444709 77400 449
765494 249110 509
483114 947867 525
264066 613164 470
77407 955111 525
119897 89481 354
694097 807128 504
434564 397470 449
941637 719390 525
620640 692406 509
410098 291597 449
862611 290582 525
782436 94711 509
528444 106845 470
670240 821789 504
143028 320887 443
371257 628220 509
527078 708345 509
124814 476643 449
726230 433700 509
137963 491824 449
707750 4351 509
590222 64996 470
320526 152250 443
480224 728139 509
606310 148342 470
421711 352379 449
173287 143246 383
608144 237314 470
672679 336464 509
294731 752134 509
824177 890332 525
411818 457610 418
704525 262649 509
918155 159387 525
711771 612054 509
676574 610641 509
987506 358179 525
916347 625374 525
495360 814673 509
213464 932900 525
597005 706800 509
300180 908080 525
238928 783823 509
951358 647038 525
728655 511520 509
612328 413867 470
540114 827905 509
82265 967069 525
234888 549443 470
909210 503523 525
620779 612110 447
236986 216347 443
157345 592273 470
165797 537559 470
736275 916445 525
586013 105598 470
803174 513393 509
909051 971963 507
822204 951441 525
492153 744144 509
313583 320197 353
218174 161818 386
34948 157883 383
322021 960907 525
506502 637458 509
982225 579260 525
835792 974723 525
159102 525426 470
925852 554066 525
286633 911020 525
681063 122465 509
854948 319229 525
907810 814080 525
508446 201124 449
903409 906746 445
368864 272690 441
233671 864796 525
735721 857135 525
468304 375928 449
453422 590078 470
332927 56445 443
980506 118936 525
935187 458737 525
817552 331877 509
711834 445398 509
543074 258520 470
190199 961249 525
665138 606603 509
575632 697293 509
429949 620892 470
705494 339981 509
560503 704404 509
93285 615736 470
329919 77889 443
385654 461724 449
568728 160275 470
850097 756831 525
475747 759816 509
845476 831882 525
427655 292026 449
157898 849042 525
60709 954925 525
599898 82748 470
645656 135902 509
643204 661928 429
756876 136130 509
697632 869958 525
284574 685239 509
446213 764176 509
827501 503572 509
887287 749338 525
782743 191965 509
609353 777288 509
566768 453052 470
994730 743807 525
875635 449339 525
819004 392754 509
297039 739568 509
276777 653768 509
95116 848363 525
930237 673965 525
321195 80493 443
44868 391881 443
617614 290403 470
454806 554556 470
795570 213940 509
692456 825934 504
87948 811589 509
769666 175102 509
939664 883077 507
132141 222898 386
163526 329724 443
405297 274223 441
355624 110272 443
715666 176846 509
442370 599457 470
650191 98955 509
561286 637172 509
117127 138107 344
745523 530124 509
929943 530002 525
459757 513961 470
491823 413997 444
161901 310428 443
883299 156095 525
577386 395081 470
252174 832300 509
438118 423252 418
