468361 566897
772847 716288
269899 371683
494107 852473
835508 608556
539877 112738
243368 373983
149892 233701
567627 360181
838119 710611
104343 227876
932083 94848
741677 352076
642419 24919
728920 311215
434621 995134
876384 369996
194180 786433
298608 771971
981063 68235
46242 208492
43088 6830
424688 1857
798113 975011
891735 776835
337195 382820
796589 515775
960897 771569
67251 197681
625868 911268
307686 80616
513579 523180
5856 722935
797554 477290
515512 832998
612645 587301
723395 857922
756345 610402
186709 350590
744411 874392
61272 566299
353611 974748
687195 727481
485499 602999
15034 737431
295400 272898
180011 606068
440507 444189
945197 459173
814033 127387
129311 49006
55553 589885
349450 363859
498475 427426
770620 927037
688840 466915
762545 123826
718873 572377
502370 685683
681052 882540
989643 142793
16635 214854
334602 813150
577639 251925
135759 151546
564924 940680
586841 219693
886554 953445
734492 474069
766587 367507
612943 135367
984835 18761
338223 879276
301323 323948
981854 755333
559705 949412
720047 689218
756104 511952
759463 742673
710380 409442
95867 238547
62152 410918
245191 917442
340898 621124
538047 456114
362345 189423
126603 764338
510084 71410
662965 997912
627448 556017
149498 386916
37866 645582
829282 394196
842709 495683
968759 980808
155500 873064
54580 982861
632278 113358
280986 606869
968384 583715
420145 168281
829704 397481
907435 605316
674540 280570
193712 91402
397334 188868
268199 945784
98044 184234
758622 531882
770524 407664
480737 776176
321075 194323
377691 888416
34184 213337
504144 98891
91921 724806
773595 100998
18657 348792
707627 172094
241622 581166
439118 496703
293618 56772
596531 690688
379209 845674
886368 233356
517060 787291
122835 788103
706014 482460
325451 341138
299552 234451
3805 336314
867975 907217
663983 126695
479297 788258
784624 652935
587178 918621
764919 887287
967754 766115
784329 806003
439027 287476
721862 328083
856543 377807
90467 864643
407650 736039
606653 844521
391020 1278
755952 226823
495366 748847
152554 107478
435243 60497
674835 80245
869041 672509
136279 247816
539258 729956
535176 686010
278674 270074
712951 252674
207671 173363
937001 55541
293040 90521
441334 979333
865473 427309
702726 128594
558990 949120
920207 682829
220895 327054
933432 761738
109085 699893
488817 256167
902793 471321
697788 350487
468417 645497
170603 442265
738017 85183
65988 93090
275259 504946
388137 568531
440924 398652
29556 552839
452193 379279
610930 938568
385242 268716
843204 290296
769075 697431
597054 124293
68819 310810
258100 436707
775333 743833
334709 524299
43301 392987
438158 56662
932142 260520
626496 143532
295358 569170
464850 223086
387291 288950
636236 95627
256823 971037
423298 494721
559452 130566
479565 19408
42591 792023
2113 976342
610733 992633
446679 85585
795462 356360
212462 120586
202817 906440
256738 411235
224574 592047
95548 307369
593985 810354
48402 381679
931782 9217
270546 759237
724843 400598
194605 381685
838755 366375
147653 745100
313001 785726
70024 336905
480451 25051
811647 171438
500269 785105
370798 921356
382729 607855
671267 579646
890742 178596
87361 565797
525777 947024
171894 52172
21090 265496
609041 974594
192947 202222
588937 674364
162377 942033
952030 362133
54681 340646
361901 92047
369537 39926
677413 187223
498109 533129
119671 435894
984324 830959
923022 277725
534751 600657
377255 493716
317900 912223
508937 129213
414527 129892
457017 720733
996678 720662
177690 151091
35125 341359
669802 168102
517055 492677
798089 61238
380690 421877
10277 966805
604511 816319
451429 484136
790396 333720
311571 881443
201967 603288
166175 115651
307394 523307
748678 257179
373863 596407
