86 1771 182
739 6019 238
730 2200 182
401 8086 262
625 2642 209
696 5045 238
887 4184 238
983 8273 262
928 2923 217
194 8275 262
957 4281 238
54 7008 262
773 5535 238
603 9034 262
55 4332 238
8 1376 182
769 2231 183
267 3793 238
592 9157 262
160 2999 217
261 1565 182
306 5690 238
761 5639 238
114 5392 238
419 3405 217
11 7239 262
143 6191 262
205 9543 262
577 1862 182
78 3866 238
43 9246 262
264 7851 262
192 4270 238
262 8413 262
671 5929 238
613 4666 238
565 1779 182
325 6360 262
480 8018 262
512 5770 238
65 6069 238
709 4398 238
146 2024 182
376 2552 209
960 5285 238
472 5432 238
303 6675 262
745 4135 238
247 5450 238
787 6132 238
679 8368 262
280 5669 238
732 3592 217
475 3296 217
460 4593 238
600 4428 238
277 2095 182
394 1321 182
871 4666 238
477 4456 238
639 2548 209
817 5357 238
259 1330 182
576 2097 182
923 2983 217
218 4569 238
693 6053 238
677 6763 262
824 4215 238
498 2822 209
852 9809 262
149 5299 238
592 5658 238
141 4998 238
995 1574 182
287 8285 262
974 7182 262
162 8872 262
895 4384 238
902 5208 238
472 5666 238
995 2102 182
3 2673 209
586 8738 262
255 4722 238
337 3711 238
775 5991 238
68 8744 262
874 1177 182
512 7179 262
920 8914 262
141 8800 262
898 3542 217
870 6194 262
246 2134 182
429 4536 238
635 9139 262
323 5771 238
756 7878 262
67 1509 182
606 2914 209
148 2640 209
336 8225 262
220 3540 217
30 5550 238
922 3844 238
468 3037 217
112 3284 217
451 8100 262
383 7326 262
205 9538 262
330 7959 262
447 1625 182
658 6198 262
58 6856 262
137 1136 179
873 5594 238
106 6779 262
243 4497 238
647 8451 262
479 2064 182
655 3654 217
283 9144 262
460 4800 238
832 9533 262
449 3457 217
585 1618 182
742 6617 262
158 2477 209
900 9108 262
384 1339 182
58 6601 262
132 8091 262
721 8651 262
397 6066 238
772 8045 262
127 4580 238
909 6325 262
524 6223 262
458 4294 238
220 1127 179
34 2004 182
619 4043 238
992 9090 262
78 8957 262
938 1539 182
321 2958 217
73 7533 262
272 9307 262
748 2266 183
563 5955 238
428 8027 262
527 2848 209
834 8513 262
384 5757 238
926 2102 182
910 9976 262
833 6743 262
297 1437 182
457 1092 179
729 8208 262
79 3820 238
311 5745 238
355 7184 262
519 9358 262
812 3050 217
217 4620 238
41 7846 262
910 1803 182
97 9529 262
379 3296 217
122 7768 262
503 7806 262
399 7761 262
776 2767 209
820 4955 238
508 3517 217
835 6153 238
196 8558 262
859 7865 262
32 2933 217
34 8811 262
205 4697 238
382 8654 262
762 5178 238
14 5663 238
635 4297 238
367 6027 238
356 4470 238
374 2913 209
315 2520 209
474 7432 262
743 2586 209
40 1381 182
821 7169 262
607 6618 262
902 2754 209
689 4253 238
98 1542 182
873 5706 238
600 6717 262
943 3244 217
117 4131 238
621 4368 238
692 5677 238
814 3809 238
614 7555 262
172 7465 262
756 6896 262
481 3404 217
53 2885 209
907 1044 174
939 1741 182
